[
    {
        "serverURL": "http://localhost:4723/wd/hub",
        "proxyHost": "",
        "proxyPort": "",
        "capturePort": "",
        "capabilities": {
            "platformVersion": "11.0",
            "udid": "emulator-5554",
            "systemPort": "8201",
            "deviceName": "Mammoth_demo"
        },
        "app": "https://appvance-qa.s3.us-west-2.amazonaws.com/Syed/com.microsoft.amp.apps.bingfinance-1.2.0.apk"
    }
]